<?xml version="1.0" encoding="UTF-8" standalone="no"?>
<!-- Created with Inkscape (http://www.inkscape.org/) -->

<svg
   xmlns:dc="http://purl.org/dc/elements/1.1/"
   xmlns:cc="http://creativecommons.org/ns#"
   xmlns:rdf="http://www.w3.org/1999/02/22-rdf-syntax-ns#"
   xmlns:svg="http://www.w3.org/2000/svg"
   xmlns="http://www.w3.org/2000/svg"
   xmlns:sodipodi="http://sodipodi.sourceforge.net/DTD/sodipodi-0.dtd"
   xmlns:inkscape="http://www.inkscape.org/namespaces/inkscape"
   width="744.09448819"
   height="1052.3622047"
   id="svg2"
   version="1.1"
   inkscape:version="0.48.4 r9939"
   sodipodi:docname="app.svg">
  <defs
     id="defs4" />
  <sodipodi:namedview
     id="base"
     pagecolor="#ffffff"
     bordercolor="#666666"
     borderopacity="1.0"
     inkscape:pageopacity="0.0"
     inkscape:pageshadow="2"
     inkscape:zoom="0.49497475"
     inkscape:cx="-107.38469"
     inkscape:cy="553.39213"
     inkscape:document-units="px"
     inkscape:current-layer="layer1"
     showgrid="false"
     inkscape:window-width="1418"
     inkscape:window-height="681"
     inkscape:window-x="78"
     inkscape:window-y="78"
     inkscape:window-maximized="0" />
  <metadata
     id="metadata7">
    <rdf:RDF>
      <cc:Work
         rdf:about="">
        <dc:format>image/svg+xml</dc:format>
        <dc:type
           rdf:resource="http://purl.org/dc/dcmitype/StillImage" />
        <dc:title></dc:title>
      </cc:Work>
    </rdf:RDF>
  </metadata>
  <g
     inkscape:label="Layer 1"
     inkscape:groupmode="layer"
     id="layer1">
    <rect
       style="fill:#f9f9f9;fill-opacity:1;stroke:#1a1a1a;stroke-width:0;stroke-miterlimit:4;stroke-opacity:1;stroke-dasharray:none;stroke-dashoffset:0"
       id="rect2985"
       width="480"
       height="800"
       x="671.34448"
       y="148.16058" />
    <path
       sodipodi:type="star"
       style="fill:#333333;fill-opacity:1;stroke:#1a1a1a;stroke-width:0;stroke-miterlimit:4;stroke-opacity:1;stroke-dasharray:none;stroke-dashoffset:0"
       id="path2987"
       sodipodi:sides="18"
       sodipodi:cx="287.14285"
       sodipodi:cy="383.79074"
       sodipodi:r1="158.21712"
       sodipodi:r2="118.80363"
       sodipodi:arg1="-0.69589435"
       sodipodi:arg2="-0.52136142"
       inkscape:flatsided="false"
       inkscape:rounded="0"
       inkscape:randomized="0"
       d="m 408.57143,282.36216 -18.40897,42.25711 45.77655,5.3908 -31.75156,33.41246 41.17212,20.7222 -41.26443,20.53776 31.60173,33.5542 -45.80022,5.18591 18.2197,42.33906 -44.81181,-10.79143 2.64011,46.0172 -38.41844,-25.46717 -13.25792,44.145 -27.39124,-37.07119 -27.55685,36.94826 -13.06025,-44.20389 -38.53202,25.29501 2.846,-46.00494 -44.85966,10.59081 18.40898,-42.25711 -45.77655,-5.3908 31.75156,-33.41245 -41.17213,-20.72221 41.26444,-20.53776 -31.60173,-33.55419 45.80021,-5.18592 -18.2197,-42.33906 44.81181,10.79143 -2.64011,-46.0172 38.41845,25.46717 13.25792,-44.145 27.39124,37.07119 27.55685,-36.94825 13.06025,44.20388 38.53202,-25.29501 -2.846,46.00494 z"
       inkscape:transform-center-x="9.7052092"
       inkscape:transform-center-y="19.480219"
       transform="matrix(0.71558,0,0,0.71558,-512.63484,115.58898)"
       inkscape:export-xdpi="90"
       inkscape:export-ydpi="90"
       inkscape:export-filename="C:\Users\brendan\Documents\Code\Daedulus\Resources\icarus-icon.png" />
    <rect
       style="fill:#333333;fill-opacity:1;stroke:#1a1a1a;stroke-width:0;stroke-miterlimit:4;stroke-opacity:1;stroke-dasharray:none;stroke-dashoffset:0"
       id="rect3005"
       width="480"
       height="95.714287"
       x="95.714287"
       y="853.79077" />
    <text
       xml:space="preserve"
       style="font-size:24px;font-style:normal;font-variant:normal;font-weight:normal;font-stretch:normal;line-height:125%;letter-spacing:0px;word-spacing:0px;fill:#000000;fill-opacity:1;stroke:none;font-family:Jura;-inkscape-font-specification:Jura"
       x="202.03052"
       y="716.99152"
       id="text3007"
       sodipodi:linespacing="125%"><tspan
         sodipodi:role="line"
         id="tspan3009"
         x="202.03052"
         y="716.99152">ICARUS</tspan></text>
    <rect
       style="fill:#333333;fill-opacity:1;stroke:#1a1a1a;stroke-width:0;stroke-miterlimit:4;stroke-opacity:1;stroke-dasharray:none;stroke-dashoffset:0"
       id="rect3011"
       width="39.39595"
       height="141.42136"
       x="453.38654"
       y="130.02979"
       transform="matrix(0.8660254,0.5,-0.5,0.8660254,0,0)"
       inkscape:export-filename="C:\Users\brendan\Documents\Code\Daedulus\Resources\daedalus-icon.png"
       inkscape:export-xdpi="90"
       inkscape:export-ydpi="90" />
    <rect
       style="fill:#333333;fill-opacity:1;stroke:#1a1a1a;stroke-width:0;stroke-miterlimit:4;stroke-opacity:1;stroke-dasharray:none;stroke-dashoffset:0"
       id="rect3013"
       width="125.25892"
       height="72.73098"
       x="410.45505"
       y="81.542465"
       transform="matrix(0.8660254,0.5,-0.5,0.8660254,0,0)"
       inkscape:export-filename="C:\Users\brendan\Documents\Code\Daedulus\Resources\daedalus-icon.png"
       inkscape:export-xdpi="90"
       inkscape:export-ydpi="90" />
    <path
       id="path3835"
       d="m 489.92632,288.13248 0,162.75 81.375,-81.375 -81.375,-81.375 z"
       style="fill:#333333;fill-opacity:1;stroke:#1a1a1a;stroke-width:0;stroke-miterlimit:4;stroke-opacity:1;stroke-dashoffset:0"
       inkscape:connector-curvature="0"
       inkscape:export-filename="C:\Users\brendan\Documents\Code\Daedulus\Resources\arrow-right.png"
       inkscape:export-xdpi="90"
       inkscape:export-ydpi="90" />
    <path
       style="fill:#333333;fill-opacity:1;stroke:#1a1a1a;stroke-width:0;stroke-miterlimit:4;stroke-opacity:1;stroke-dashoffset:0"
       d="m 157.13878,456.9434 0,-162.75 -81.375008,81.375 81.375008,81.375 z"
       id="path3827"
       inkscape:connector-curvature="0" />
    <path
       id="path3837"
       d="m 331.32553,127.50357 -81.375,81.375 162.75,0 -81.375,-81.375 z"
       style="fill:#333333;fill-opacity:1;stroke:#1a1a1a;stroke-width:0;stroke-miterlimit:4;stroke-opacity:1;stroke-dashoffset:0"
       inkscape:connector-curvature="0"
       inkscape:export-filename="C:\Users\brendan\Documents\Code\Daedulus\Resources\arrow-up.png"
       inkscape:export-xdpi="90"
       inkscape:export-ydpi="90" />
    <path
       style="fill:#333333;fill-opacity:1;stroke:#1a1a1a;stroke-width:0;stroke-miterlimit:4;stroke-opacity:1;stroke-dashoffset:0"
       d="m 325.26462,614.9599 81.375,-81.375 -162.75,0 81.375,81.375 z"
       id="rect3796-1"
       inkscape:connector-curvature="0" />
  </g>
</svg>
